{
  "use-global-engine-setting": true,
  "use-default-js-engine": true,
  "js-engine-path": "",
  "use-default-cpp-engine": false,
  "cpp-engine-path": "/Users/benson/Documents/gitProject/MabuApp/engine-native"
}
